20230325_NEAREPORT_ZC
…
# score means by session
prepostdata %>%
  group_by(session) %>%
  get_summary_stats(pos, neg, ios, type="mean_sd")

## # A tibble: 24 x 5
##    session variable     n  mean    sd
##    <fct>   <chr>    <dbl> <dbl> <dbl>
##  1 1       ios         34  2.53  1.71
##  2 1       neg         34 14.0   3.85
##  3 1       pos         33 27.1   6.76
##  4 2       ios         34  3.35  1.65
##  5 2       neg         34 15.2   4.68
##  6 2       pos         34 27.1   7.56
##  7 3       ios         34  3.91  1.64
##  8 3       neg         34 12.8   3.07
##  9 3       pos         34 28.7   9.71
## 10 4       ios         34  4.41  1.5 
## # ... with 14 more rows
…
